{
  "tests" : [ {
    "name" : "testovi/pocetna.gspec",
    "startedAt" : 1573602159692,
    "endedAt" : 1573602169802,
    "failed" : true,
    "statistic" : {
      "passed" : 24,
      "errors" : 1,
      "warnings" : 0,
      "total" : 25
    },
    "testId" : "1-testovi-pocetna.gspec",
    "duration" : 10110,
    "failed" : true
  } ]
}