{
  "tests" : [ {
    "name" : "testovi/unos.gspec",
    "startedAt" : 1573595601363,
    "endedAt" : 1573595609401,
    "failed" : true,
    "statistic" : {
      "passed" : 29,
      "errors" : 1,
      "warnings" : 0,
      "total" : 30
    },
    "testId" : "1-testovi-unos.gspec",
    "duration" : 8038,
    "failed" : true
  } ]
}